…
murd_rates1 %>% group_by(State) %>% summarize(mean(Murder))

## # A tibble: 50 x 2
##    State       `mean(Murder)`
##    <chr>                <dbl>
##  1 Alabama              14.2 
##  2 Alaska               10.6 
##  3 Arizona               7.95
##  4 Arkansas              9.45
##  5 California            9.65
##  6 Colorado              7.35
##  7 Connecticut           3.2 
##  8 Delaware              6.05
##  9 Florida              13.0 
## 10 Georgia              15.6 
## # … with 40 more rows
…
